0-0                                                        
000 000 000 000 000 000 000 000 000 000 000 000 000 000 000
000 000 000 000 000 000 000 000 000 000 000 000 000 000 000
000 000 000 000 000 000 000 000 000 000 000 000 000 000 000
000 000 000 000 000 000 000 000 000 000 000 000 000 000 000
000 000 000 000 000 000 000 000 000 000 000 000 000 000 000
000 000 000 000 000 000 000 000 000 000 000 000 000 000 000
000 000 000 000 000 000 000 000 000 000 000 000 000 000 000
0-1                                                        
000 000 000 000 000 000 000 000 000 000 000 000 000 000 000
000 000 000 000 000 000 000 000 000 000 000 000 000 000 000
000 000 000 000 000 000 000 000 000 000 000 000 000 000 000
000 000 000 000 000 000 000 000 000 000 000 000 000 000 000
000 000 000 000 000 000 000 000 000 000 000 000 000 000 000
000 000 000 000 000 000 000 000 000 000 000 000 000 000 000
000 000 000 000 000 000 000 000 000 000 000 000 000 000 000
0-2                                                        
001 056 144 000 128 040 000 056 224 005 000 001 013 006 015
001 216 144 001 096 040 000 056 224 005 000 001 013 006 015
000 000 000 000 000 000 000 000 000 000 000 000 000 000 000
000 000 000 000 000 000 000 000 000 000 000 000 000 000 000
000 000 000 000 000 000 000 000 000 000 000 000 000 000 000
000 000 000 000 000 000 000 000 000 000 000 000 000 000 000
000 000 000 000 000 000 000 000 000 000 000 000 000 000 000
0-3                                                        
001 032 152 002 160 040 000 088 128 009 000 003 012 004 011
001 064 136 002 192 040 000 104 144 009 000 003 012 004 011
001 080 104 002 160 040 000 088 128 009 000 003 012 004 011
001 192 120 002 192 040 000 112 144 006 000 003 012 004 011
000 000 000 000 000 000 000 000 000 000 000 000 000 000 000
000 000 000 000 000 000 000 000 000 000 000 000 000 000 000
000 000 000 000 000 000 000 000 000 000 000 000 000 000 000
0-4                                                        
003 040 136 000 096 064 000 000 000 000 000 000 000 000 000
003 072 136 000 096 064 000 000 000 000 000 000 000 000 000
003 176 136 001 064 064 000 000 000 000 000 000 000 000 000
003 208 136 001 064 064 000 000 000 000 000 000 000 000 000
000 000 000 000 000 000 000 000 000 000 000 000 000 000 000
000 000 000 000 000 000 000 000 000 000 000 000 000 000 000
000 000 000 000 000 000 000 000 000 000 000 000 000 000 000
1-0                                                        
017 000 000 000 000 000 000 000 000 000 000 001 013 000 023
017 000 000 000 000 000 000 000 000 000 000 001 013 000 023
017 000 000 000 000 000 000 000 000 000 000 001 013 000 023
017 000 000 000 000 000 000 000 000 000 000 001 013 000 023
017 000 000 000 000 000 000 000 000 000 000 001 013 000 023
017 000 000 000 000 000 000 000 000 000 000 001 013 000 023
017 000 000 000 000 000 000 000 000 000 000 001 013 000 023
1-1                                                        
017 000 000 000 000 000 000 000 000 000 000 001 013 000 023
017 000 000 000 000 000 000 000 000 000 000 001 013 000 023
017 000 000 000 000 000 000 000 000 000 000 001 013 000 023
017 000 000 000 000 000 000 000 000 000 000 001 013 000 023
017 000 000 000 000 000 000 000 000 000 000 001 013 000 023
017 000 000 000 000 000 000 000 000 000 000 001 013 000 023
017 000 000 000 000 000 000 000 000 000 000 001 013 000 023
1-2                                                        
000 000 000 000 000 000 000 000 000 000 000 000 000 000 000
000 000 000 000 000 000 000 000 000 000 000 000 000 000 000
000 000 000 000 000 000 000 000 000 000 000 000 000 000 000
000 000 000 000 000 000 000 000 000 000 000 000 000 000 000
000 000 000 000 000 000 000 000 000 000 000 000 000 000 000
000 000 000 000 000 000 000 000 000 000 000 000 000 000 000
000 000 000 000 000 000 000 000 000 000 000 000 000 000 000
1-3                                                        
002 144 048 001 224 040 000 032 160 005 000 001 013 002 011
002 168 088 000 224 040 000 080 224 004 000 001 013 002 011
000 000 000 000 000 000 000 000 000 000 000 000 000 000 000
000 000 000 000 000 000 000 000 000 000 000 000 000 000 000
000 000 000 000 000 000 000 000 000 000 000 000 000 000 000
000 000 000 000 000 000 000 000 000 000 000 000 000 000 000
000 000 000 000 000 000 000 000 000 000 000 000 000 000 000
1-4                                                        
001 104 144 001 512 040 000 080 152 003 000 002 013 012 015
001 160 040 000 544 040 000 144 184 003 000 002 013 012 015
005 048 088 003 336 064 000 056 128 007 000 002 013 000 015
005 072 104 002 320 064 000 080 136 007 000 002 013 000 015
005 152 096 002 320 064 000 096 136 007 000 002 013 000 015
005 176 080 003 336 064 000 072 128 007 000 002 013 000 015
000 000 000 000 000 000 000 000 000 000 000 000 000 000 000
2-0                                                        
016 120 008 000 416 056 000 000 000 000 000 000 085 000 032
000 000 000 000 000 000 000 000 000 000 000 000 000 000 000
000 000 000 000 000 000 000 000 000 000 000 000 000 000 000
000 000 000 000 000 000 000 000 000 000 000 000 000 000 000
000 000 000 000 000 000 000 000 000 000 000 000 000 000 000
000 000 000 000 000 000 000 000 000 000 000 000 000 000 000
000 000 000 000 000 000 000 000 000 000 000 000 000 000 000
2-1                                                        
016 104 072 001 608 040 000 000 000 001 000 001 014 000 015
000 000 000 000 000 000 000 000 000 000 000 000 000 000 000
000 000 000 000 000 000 000 000 000 000 000 000 000 000 000
000 000 000 000 000 000 000 000 000 000 000 000 000 000 000
000 000 000 000 000 000 000 000 000 000 000 000 000 000 000
000 000 000 000 000 000 000 000 000 000 000 000 000 000 000
000 000 000 000 000 000 000 000 000 000 000 000 000 000 000
2-2                                                        
004 032 064 002 560 024 000 040 150 009 000 001 013 001 013
004 048 016 003 288 040 000 008 064 004 000 001 013 001 013
004 128 120 003 288 040 000 112 144 004 000 001 013 001 013
004 160 064 002 560 024 000 008 144 009 000 001 013 001 013
004 176 072 003 592 024 000 008 144 009 000 001 013 001 013
000 000 000 000 000 000 000 000 000 000 000 000 000 000 000
000 000 000 000 000 000 000 000 000 000 000 000 000 000 000
2-3                                                        
003 144 088 001 128 064 000 088 176 005 000 001 013 003 015
003 126 136 001 128 064 000 064 128 005 000 001 013 008 015
000 000 000 000 000 000 000 000 000 000 000 000 000 000 000
000 000 000 000 000 000 000 000 000 000 000 000 000 000 000
000 000 000 000 000 000 000 000 000 000 000 000 000 000 000
000 000 000 000 000 000 000 000 000 000 000 000 000 000 000
000 000 000 000 000 000 000 000 000 000 000 000 000 000 000
2-4                                                        
001 120 144 001 512 040 000 048 184 003 000 002 013 012 015
017 136 032 000 384 040 000 152 048 000 000 002 013 010 015
017 224 048 000 384 040 000 152 096 000 000 002 013 007 015
017 112 112 000 384 040 000 152 096 000 000 002 013 007 015
001 048 032 002 160 040 000 008 064 005 000 003 012 004 012
000 000 000 000 000 000 000 000 000 000 000 000 000 000 000
000 000 000 000 000 000 000 000 000 000 000 000 000 000 000
3-0                                                        
003 088 056 001 000 064 000 080 112 005 000 001 013 008 015
003 160 136 000 032 064 000 128 192 005 000 001 013 001 015
012 192 032 000 640 040 000 032 104 000 000 005 010 000 015
012 208 032 000 640 040 000 032 136 000 000 005 010 000 015
012 088 032 000 640 040 000 032 072 000 000 005 010 000 015
012 088 088 000 640 040 000 088 120 000 000 005 010 000 015
012 032 088 000 640 040 000 088 120 000 000 005 010 000 015
3-1                                                        
013 060 160 000 480 040 000 072 160 000 000 003 012 001 014
013 160 160 000 480 040 000 088 160 000 000 003 012 001 014
013 116 160 000 480 040 000 080 160 000 000 003 012 001 014
001 148 016 002 160 040 000 008 064 005 000 003 012 004 011
000 000 000 000 000 000 000 000 000 000 000 000 000 000 000
000 000 000 000 000 000 000 000 000 000 000 000 000 000 000
000 000 000 000 000 000 000 000 000 000 000 000 000 000 000
3-2                                                        
015 016 024 000 288 064 000 008 233 000 000 001 013 007 015
015 224 072 001 256 064 000 008 233 000 000 001 013 007 015
015 120 104 001 256 064 000 008 233 000 000 001 013 007 015
000 000 000 000 000 000 000 000 000 000 000 000 000 000 000
000 000 000 000 000 000 000 000 000 000 000 000 000 000 000
000 000 000 000 000 000 000 000 000 000 000 000 000 000 000
000 000 000 000 000 000 000 000 000 000 000 000 000 000 000
3-3                                                        
016 016 008 000 000 088 000 016 208 000 000 000 032 000 027
000 000 000 000 000 000 000 000 000 000 000 000 000 000 000
000 000 000 000 000 000 000 000 000 000 000 000 000 000 000
000 000 000 000 000 000 000 000 000 000 000 000 000 000 000
000 000 000 000 000 000 000 000 000 000 000 000 000 000 000
000 000 000 000 000 000 000 000 000 000 000 000 000 000 000
000 000 000 000 000 000 000 000 000 000 000 000 000 000 000
3-4                                                        
012 048 008 000 640 040 000 008 040 000 000 005 010 000 015
013 142 160 000 480 040 000 080 160 000 000 003 012 001 014
013 192 160 000 480 040 000 088 160 000 000 003 012 001 014
001 088 032 002 160 040 000 008 072 005 000 003 012 004 011
012 128 008 000 640 040 000 008 064 000 000 005 010 000 015
000 000 000 000 000 000 000 000 000 000 000 000 000 000 000
000 000 000 000 000 000 000 000 000 000 000 000 000 000 000
4-0                                                        
011 216 024 001 448 040 000 008 000 000 000 000 000 000 000
003 120 136 000 032 064 000 080 144 006 000 001 013 000 015
006 120 088 001 464 024 000 032 208 007 000 001 003 002 014
000 000 000 000 000 000 000 000 000 000 000 000 000 000 000
000 000 000 000 000 000 000 000 000 000 000 000 000 000 000
000 000 000 000 000 000 000 000 000 000 000 000 000 000 000
000 000 000 000 000 000 000 000 000 000 000 000 000 000 000
4-1                                                        
015 192 120 001 256 064 000 016 233 000 000 003 012 007 015
003 056 040 000 224 064 000 016 096 005 000 001 013 002 015
003 024 136 000 224 064 000 016 128 005 000 001 013 002 015
003 120 136 000 224 064 000 016 128 005 000 001 013 002 015
000 000 000 000 000 000 000 000 000 000 000 000 000 000 000
000 000 000 000 000 000 000 000 000 000 000 000 000 000 000
000 000 000 000 000 000 000 000 000 000 000 000 000 000 000
4-2                                                        
011 224 104 001 448 040 000 008 240 000 000 000 000 000 000
003 072 008 001 352 064 000 016 104 005 000 001 013 000 012
003 136 064 000 160 064 000 120 152 005 000 003 012 006 015
003 212 064 001 192 064 000 192 224 005 000 003 012 006 015
014 152 160 000 416 040 000 088 160 000 000 004 011 004 011
014 080 160 000 416 040 000 048 160 000 000 004 011 004 011
014 094 160 000 416 040 000 056 160 000 000 004 011 004 011
4-3                                                        
003 148 008 001 352 064 000 016 224 005 000 001 013 000 012
014 048 160 000 416 040 000 012 160 000 000 004 011 004 011
014 080 160 000 416 040 000 008 160 000 000 004 011 004 011
014 160 160 000 416 040 000 010 160 000 000 004 011 004 011
006 120 032 001 464 024 000 016 216 006 000 001 013 002 014
006 152 104 001 464 024 000 016 216 006 000 001 013 002 014
000 000 000 000 000 000 000 000 000 000 000 000 000 000 000
4-4                                                        
018 200 048 000 192 088 000 016 080 000 000 000 032 000 048
000 000 000 000 000 000 000 000 000 000 000 000 000 000 000
000 000 000 000 000 000 000 000 000 000 000 000 000 000 000
000 000 000 000 000 000 000 000 000 000 000 000 000 000 000
000 000 000 000 000 000 000 000 000 000 000 000 000 000 000
000 000 000 000 000 000 000 000 000 000 000 000 000 000 000
000 000 000 000 000 000 000 000 000 000 000 000 000 000 000
